{
  "page": 1,
  "results": [
    {
      "backdrop_path": "/path.jpg",
      "first_air_date": "2021-09-03",
      "genre_ids": [
        1,
        2,
        3
      ],
      "id": 1,
      "name": "name",
      "original_name": "originalName",
      "overview": "overview",
      "popularity": 1.0,
      "poster_path": "/path.jpg",
      "vote_average": 1.0,
      "vote_count": 1
    }
  ],
  "total_pages": 117,
  "total_results": 2338
}